<svg width="24" height="24" viewBox="0 0 24 24" fill="none" xmlns="http://www.w3.org/2000/svg">
<path d="M23.3124 11.7224C22.9304 11.7224 22.6248 12.028 22.6248 12.41V18.6647C22.6248 20.3659 21.2394 21.7462 19.5433 21.7462H4.45671C2.75552 21.7462 1.37521 20.3608 1.37521 18.6647V12.3082C1.37521 11.9261 1.06961 11.6205 0.687606 11.6205C0.305603 11.6205 0 11.9261 0 12.3082V18.6647C0 21.1248 2.0017 23.1214 4.45671 23.1214H19.5433C22.0034 23.1214 24 21.1197 24 18.6647V12.41C24 12.0331 23.6944 11.7224 23.3124 11.7224Z" fill="#626159"/>
<path d="M11.5161 17.6613C11.6486 17.7937 11.8268 17.865 12 17.865C12.1732 17.865 12.3515 17.7988 12.4839 17.6613L16.854 13.2912C17.124 13.0212 17.124 12.5883 16.854 12.3183C16.5841 12.0484 16.1511 12.0484 15.8812 12.3183L12.6876 15.517V1.56621C12.6876 1.1842 12.382 0.878601 12 0.878601C11.618 0.878601 11.3124 1.1842 11.3124 1.56621V15.517L8.11377 12.3183C7.84382 12.0484 7.41089 12.0484 7.14094 12.3183C6.87099 12.5883 6.87099 13.0212 7.14094 13.2912L11.5161 17.6613Z" fill="#626159"/>
</svg>
