<svg width="17" height="15" viewBox="0 0 17 15" fill="none" xmlns="http://www.w3.org/2000/svg">
<path d="M5.06191 4.96579L1.3384 1.50041C1.819 1.05335 2.29866 0.605398 2.78022 0.157448C3.00285 -0.0496393 3.36211 -0.0531944 3.58569 0.151227L6.48654 2.85225C6.70821 3.05845 6.70821 3.39797 6.48367 3.60595L5.84828 4.1961L5.25683 4.74626C5.18422 4.8147 5.11829 4.88758 5.06191 4.96579ZM8.12519 10.6105C7.5156 10.1225 6.93084 9.60438 6.36328 9.07733C5.79668 8.54672 5.24155 8.00456 4.71603 7.43485C4.28606 6.97268 4.20198 6.30342 4.42652 5.73993L0.604584 2.18389C-0.284971 3.03446 -0.171268 5.14355 0.803325 6.99667C1.22183 7.79836 1.76454 8.52183 2.32541 9.20976C2.88532 9.89235 3.4997 10.5376 4.14656 11.1438C4.79533 11.749 5.48519 12.3232 6.22092 12.844C6.96046 13.3675 7.74013 13.8688 8.59625 14.2572C10.5913 15.1629 12.8596 15.2624 13.7731 14.4341L9.95017 10.878C9.34439 11.0869 8.62396 11.0096 8.12519 10.6105ZM15.9554 11.6601L13.0545 8.96089C12.8319 8.75647 12.4669 8.75647 12.2443 8.96356H12.2424L11.6051 9.55549L11.0174 10.1048C10.9448 10.1723 10.8655 10.2319 10.7814 10.287L14.504 13.7515C14.9856 13.3026 15.4662 12.8565 15.9487 12.4094C16.1732 12.2023 16.178 11.8672 15.9554 11.6601Z" fill="#626159"/>
</svg>
